###### Progress log entry 2018-09-03 21:01:12 ######
Reinstalling all deployed packages...
###### Progress log entry 2018-09-03 21:01:18 ######
###### Progress log entry 2018-09-17 23:19:48 ######
Reinstalling all deployed packages...
###### Progress log entry 2018-09-17 23:19:55 ######
###### Progress log entry 2018-09-21 10:42:02 ######
###### Progress log entry 2018-10-01 23:17:07 ######
###### Progress log entry 2018-10-01 23:26:19 ######
###### Progress log entry 2018-10-01 23:33:32 ######
###### Progress log entry 2018-10-24 16:43:46 ######
Reinstalling all deployed packages...
###### Progress log entry 2018-10-24 16:43:54 ######
###### Progress log entry 2018-10-29 23:47:24 ######
###### Progress log entry 2018-11-26 15:58:30 ######
Reinstalling all deployed packages...
###### Progress log entry 2018-11-26 15:58:36 ######
###### Progress log entry 2018-12-10 23:50:22 ######
