Accuracy	Velocity	Fluidness	Date	Hour	Lesson	Language
92.49	41.51	77.97	2018-09-05	17:28	Default	Euskara
93.27	47.20	77.70	2018-09-05	18:53	Default	Euskara
92.52	47.44	75.23	2018-09-05	18:59	Default	Euskara
95.32	51.30	77.57	2018-09-05	19:40	Default	Euskara
95.52	54.78	79.10	2018-09-05	19:44	Default	Euskara
94.02	49.96	77.79	2018-09-05	19:50	Default	Euskara
95.17	55.70	77.18	2018-09-05	19:54	Default	Euskara
93.49	51.49	77.58	2018-09-05	20:00	Default	Euskara
93.29	48.72	76.16	2018-09-05	21:01	Default	Euskara
94.10	51.29	75.77	2018-09-05	21:05	Default	Euskara
93.22	45.50	76.73	2018-09-06	11:30	Default	Euskara
95.15	49.54	76.89	2018-09-06	11:36	Default	Euskara
93.16	47.87	77.20	2018-09-06	11:56	Default	Euskara
93.07	49.29	75.84	2018-09-06	12:02	Default	Euskara
95.17	53.18	78.28	2018-09-06	12:07	Default	Euskara
94.39	50.26	76.92	2018-09-06	12:12	Default	Euskara
92.89	47.08	75.77	2018-09-06	12:17	Default	Euskara
92.03	45.87	76.75	2018-09-06	12:22	Default	Euskara
94.79	48.73	76.65	2018-09-06	15:29	Default	Euskara
95.30	52.44	77.33	2018-09-06	15:45	Default	Euskara
93.46	42.07	74.48	2018-09-06	15:55	Default	Euskara
95.67	54.89	77.63	2018-09-06	15:59	Default	Euskara
90.91	44.22	75.78	2018-09-06	16:05	Default	Euskara
